…
# ggvenn + data.frame

    Code
      ggvenn(d, c("Set 1", "Set 2"))$data
    Warning <lifecycle_warning_deprecated>
      Using `size` aesthetic for lines was deprecated in ggplot2 3.4.0.
      i Please use `linewidth` instead.
    Output
      # A tibble: 200 x 6
         group  theta x_raw  y_raw     x      y
         <chr>  <dbl> <dbl>  <dbl> <dbl>  <dbl>
       1 A     0      1     0      0.333 0     
       2 A     0.0635 0.998 0.0634 0.331 0.0634
       3 A     0.127  0.992 0.127  0.325 0.127 
       4 A     0.190  0.982 0.189  0.315 0.189 
       5 A     0.254  0.968 0.251  0.301 0.251 
       6 A     0.317  0.950 0.312  0.283 0.312 
       7 A     0.381  0.928 0.372  0.262 0.372 
       8 A     0.444  0.903 0.430  0.236 0.430 
       9 A     0.508  0.874 0.486  0.207 0.486 
      10 A     0.571  0.841 0.541  0.175 0.541 
      # i 190 more rows

---

    Code
      ggvenn(d, c("Set 1", "Set 2", "Set 3"))$data
    Warning <lifecycle_warning_deprecated>
      Using `size` aesthetic for lines was deprecated in ggplot2 3.4.0.
      i Please use `linewidth` instead.
    Output
      # A tibble: 300 x 6
         group  theta x_raw  y_raw     x     y
         <chr>  <dbl> <dbl>  <dbl> <dbl> <dbl>
       1 A     0      1     0      0.333 0.622
       2 A     0.0635 0.998 0.0634 0.331 0.685
       3 A     0.127  0.992 0.127  0.325 0.749
       4 A     0.190  0.982 0.189  0.315 0.811
       5 A     0.254  0.968 0.251  0.301 0.873
       6 A     0.317  0.950 0.312  0.283 0.934
       7 A     0.381  0.928 0.372  0.262 0.994
       8 A     0.444  0.903 0.430  0.236 1.05 
       9 A     0.508  0.874 0.486  0.207 1.11 
      10 A     0.571  0.841 0.541  0.175 1.16 
      # i 290 more rows

---

    Code
      ggvenn(d)$data
    Warning <lifecycle_warning_deprecated>
      Using `size` aesthetic for lines was deprecated in ggplot2 3.4.0.
      i Please use `linewidth` instead.
    Output
      # A tibble: 400 x 6
         group  theta x_raw  y_raw      x      y
         <chr>  <dbl> <dbl>  <dbl>  <dbl>  <dbl>
       1 A     0      0.75  0      -0.170 0.0303
       2 A     0.0635 0.748 0.0951 -0.238 0.0965
       3 A     0.127  0.744 0.190  -0.308 0.160 
       4 A     0.190  0.736 0.284  -0.380 0.221 
       5 A     0.254  0.726 0.377  -0.453 0.280 
       6 A     0.317  0.713 0.468  -0.527 0.335 
       7 A     0.381  0.696 0.557  -0.602 0.387 
       8 A     0.444  0.677 0.645  -0.677 0.435 
       9 A     0.508  0.655 0.729  -0.752 0.479 
      10 A     0.571  0.631 0.811  -0.827 0.520 
      # i 390 more rows
